{
 "actions": [],
 "creation": "2021-06-25 14:06:06.845658",
 "doctype": "DocType",
 "editable_grid": 1,
 "engine": "InnoDB",
 "field_order": [
  "date_date",
  "temp_temp",
  "season_season"
 ],
 "fields": [
  {
   "fieldname": "date_date",
   "fieldtype": "Data",
   "label": "Date"
  },
  {
   "fieldname": "temp_temp",
   "fieldtype": "Data",
   "label": "Temperature"
  },
  {
   "fieldname": "season_season",
   "fieldtype": "Select",
   "label": "Season",
   "options": "Summer\nWinter\nAutumn\nRainy"
  }
 ],
 "index_web_pages_for_search": 1,
 "istable": 1,
 "links": [],
 "modified": "2021-06-25 14:06:06.845658",
 "modified_by": "Administrator",
 "module": "Assignment",
 "name": "Weathers",
 "owner": "Administrator",
 "permissions": [],
 "sort_field": "modified",
 "sort_order": "DESC",
 "track_changes": 1
}